{
    "type": "table",
    "name": "tree",
    "database": "ombazar",
    "data": [
        {
            "user_id": "003000000000000001000000000000000000",
            "level": 0,
            "referer": "",
            "up_line_referer": "",
            "childes": [],
            "position": "Top",
            "account_balance": 0,
            "point_balance": 100,
            "status": "Paid",
            "time": "",
            "expire": "Not expire",
            "active_expire": "Not expire",
            "distributed_point": 0,
            "distribute_status": 0,
            "last_distribute_time": ""
        }

    ]
}